[api-updater (non-obsolete-error-filter)] 09.06.2021 11:40:09 : Starting D:/Programs/Unity/2020.2.7f1/Editor/Data/Tools/ScriptUpdater/APIUpdater.NonObsoleteApiUpdaterDetector.exe
[api-updater (non-obsolete-error-filter)] 
----------------------------------
jit/startup time      : 1035,5691ms
moved types parse time: 165ms
candidates parse time : 1ms
C# parse time         : 904ms
candidates check time : 44ms
console write time    : 6ms

